…
1- Tidy data

You’ll be introduced to the concept of tidy data which is central to this course. In the first two lessons, you’ll jump straight into the action by separating messy character columns into tidy variables and observations ready for analysis. In the final lesson, you’ll learn how to overwrite and remove missing values.

1-3 Multiple variables per column

Being a busy person, you don’t want to spend too much time on Netflix, so you decide to crunch some numbers on TV show and movie durations before deciding what to watch. You’ve managed to obtain a dataset named netflix_df, but its duration column has an issue. It contains strings with both a value and unit of duration (“min” or “Season”).

You’ll tidy this dataset so that each variable gets its own column.

netflix_df %>% 
  # Split the duration column into value and unit columns
  separate(duration, into = c("value", "unit"), sep = " ", convert = TRUE)

## # A tibble: 637 x 4
##    title                  type    value unit  
##    <chr>                  <chr>   <int> <chr> 
##  1 Article 15             Movie     125 min   
##  2 Kill Me If You Dare    Movie     100 min   
##  3 The Spy                TV Show     1 Season
##  4 The World We Make      Movie     108 min   
##  5 Watchman               Movie      93 min   
##  6 Mo Gilligan: Momentum  Movie      64 min   
##  7 Domino                 Movie      89 min   
##  8 TUNA GIRL              Movie      90 min   
##  9 Bard of Blood          TV Show     1 Season
## 10 Dragons: Rescue Riders TV Show     1 Season
## # ... with 627 more rows
…
1-6 Extracting observations from values

You’re given a sample of the Netflix dataset containing TV shows and their casts called tvshow_df. You want to learn which six actors have the most appearances.

However, the dataset only has one row per TV show, and multiple actors are listed in the cast column.

Transform the data so that for each TV show, every actor has a row. The number of appearances will be calculated for you.

tvshow_df

## # A tibble: 1,759 x 2
##    title                   cast                                                 
##    <chr>                   <chr>                                                
##  1 Transformers Prime      Peter Cullen, Sumalee Montano, Frank Welker, Jeffrey~
##  2 Transformers: Robots i~ Will Friedle, Darren Criss, Constance Zimmer, Khary ~
##  3 Apaches                 Alberto Ammann, Eloy Azorín, Verónica Echegui, Lucía~
##  4 Castle of Stars         Chaiyapol Pupart, Jintanutda Lummakanon, Worrawech D~
##  5 Archibald's Next Big T~ Tony Hale, Rosamund Pike, Jordan Fisher, Chelsea Kan~
##  6 The Spy                 Sacha Baron Cohen, Noah Emmerich, Hadar Ratzon Rotem~
##  7 No Tomorrow             Joshua Sasse, Tori Anderson, Jonathan Langdon, Saray~
##  8 Frequency               Peyton List, Riley Smith, Mekhi Phifer, Devin Kelley~
##  9 Adam Ruins Everything   Adam Conover, Adam Lustick, Emily Axford             
## 10 Ben 10                  Tara Strong, Montse Hernandez, David Kaye, Roger Cra~
## # ... with 1,749 more rows
…
1-9 And the Oscar for best director goes to … 

You’re working on a sample of the Netflix dataset pre-loaded as director_df. This time, the data frame contains just the directors and movie titles. Your goal is to identify the directors who created the most movies. Since the director column contains multiple names, you’ll first separate its values over multiple rows and then count the directors.

Since you don’t want movies without directors polluting your overview, you’ll apply the drop_na() function.

director_df %>% 
  # Spread the director column over separate rows
  separate_rows(director, sep = ", ") %>% 
  # Count the number of movies per director
  count(director, sort=TRUE)

## # A tibble: 3,536 x 2
##    director             n
##    <chr>            <int>
##  1 <NA>               129
##  2 Jan Suter           21
##  3 Raúl Campos         19
##  4 Jay Karas           14
##  5 Marcus Raboy        14
##  6 Jay Chapman         12
##  7 Martin Scorsese      9
##  8 Steven Spielberg     9
##  9 David Dhawan         8
## 10 Johnnie To           8
## # ... with 3,526 more rows

director_df %>% 
  # Drop rows with NA values in the director column
  drop_na() %>% 
  # Spread the director column over separate rows
  separate_rows(director, sep = ", ") %>% 
  # Count the number of movies per director
  count(director, sort = TRUE)

## # A tibble: 3,535 x 2
##    director             n
##    <chr>            <int>
##  1 Jan Suter           21
##  2 Raúl Campos         19
##  3 Jay Karas           14
##  4 Marcus Raboy        14
##  5 Jay Chapman         12
##  6 Martin Scorsese      9
##  7 Steven Spielberg     9
##  8 David Dhawan         8
##  9 Johnnie To           8
## 10 Lance Bangs          8
## # ... with 3,525 more rows
…
<img src="{{< blogdown/postref >}}index.en_files/figure-html/unnamed-chunk-9-1.png" width="672" />

2- From wide to long and back

This chapter is all about pivoting data from a wide to long format and back again using the pivot_longer() and pivot_wider() functions. You’ll need these functions when variables are hidden in messy column names or when variables are stored in rows instead of columns. You’ll learn about space dogs, nuclear bombs, and planet temperatures along the way.

2-2 Nuclear bombs per country

You’ve been given a version of the Nuclear Explosion DataBase (NEDB) where country names are specified in the column headers (nuke_df). You want to visualize how many nukes were detonated per year per country. You’ll need to pivot the data and replace NA values first.

nuke_df2

## # A tibble: 73 x 9
##     year `United States` `Russian Federatio~ `United Kingdom` France China India
##    <dbl>           <dbl>               <dbl>            <dbl>  <dbl> <dbl> <dbl>
##  1  1945               3                  NA               NA     NA    NA    NA
##  2  1946               2                  NA               NA     NA    NA    NA
##  3  1947              NA                  NA               NA     NA    NA    NA
##  4  1948               3                  NA               NA     NA    NA    NA
##  5  1949              NA                   1               NA     NA    NA    NA
##  6  1950              NA                  NA               NA     NA    NA    NA
##  7  1951              16                   2               NA     NA    NA    NA
##  8  1952              10                  NA                1     NA    NA    NA
##  9  1953              11                   5                2     NA    NA    NA
## 10  1954               6                  10               NA     NA    NA    NA
## # ... with 63 more rows, and 2 more variables: Pakistan <dbl>,
## #   North Korea <dbl>

nuke_df2 %>% 
  # Pivot the data to a longer format
  pivot_longer(-year)

## # A tibble: 584 x 3
##     year name               value
##    <dbl> <chr>              <dbl>
##  1  1945 United States          3
##  2  1945 Russian Federation    NA
##  3  1945 United Kingdom        NA
##  4  1945 France                NA
##  5  1945 China                 NA
##  6  1945 India                 NA
##  7  1945 Pakistan              NA
##  8  1945 North Korea           NA
##  9  1946 United States          2
## 10  1946 Russian Federation    NA
## # ... with 574 more rows

nuke_df2 %>% 
  # Pivot the data to a longer format
  pivot_longer(
    -year, 
    # Overwrite the names of the two new columns
    names_to = "country", 
     values_to = "n_bombs"
  ) 

## # A tibble: 584 x 3
##     year country            n_bombs
##    <dbl> <chr>                <dbl>
##  1  1945 United States            3
##  2  1945 Russian Federation      NA
##  3  1945 United Kingdom          NA
##  4  1945 France                  NA
##  5  1945 China                   NA
##  6  1945 India                   NA
##  7  1945 Pakistan                NA
##  8  1945 North Korea             NA
##  9  1946 United States            2
## 10  1946 Russian Federation      NA
## # ... with 574 more rows

nuke_df2 %>% 
  # Pivot the data to a longer format
  pivot_longer(
    -year, 
    # Overwrite the names of the two new columns
    names_to = "country", 
    values_to = "n_bombs"
  ) %>%
  # Replace NA values for n_bombs with 0L
   replace_na(list(n_bombs = 0L))

## # A tibble: 584 x 3
##     year country            n_bombs
##    <dbl> <chr>                <dbl>
##  1  1945 United States            3
##  2  1945 Russian Federation       0
##  3  1945 United Kingdom           0
##  4  1945 France                   0
##  5  1945 China                    0
##  6  1945 India                    0
##  7  1945 Pakistan                 0
##  8  1945 North Korea              0
##  9  1946 United States            2
## 10  1946 Russian Federation       0
## # ... with 574 more rows
…
<img src="{{< blogdown/postref >}}index.en_files/figure-html/unnamed-chunk-13-1.png" width="672" />

2-3 WHO obesity per country

According to the World Health Organization (WHO), worldwide obesity has nearly tripled since 1975. You’re interested in the severity of this global health issue per country and whether males and females are affected differently. You’ll use the WHO’s obesity data (obesity_df) to investigate this issue. The data holds the percentage of females, males, and both sexes combined that are considered obese (BMI > 30) per country.

You want to create a scatterplot where, per nation, you can see the obesity data colored differently for females and males. This implies that sex should become a variable with its own column.

obesity_df

## # A tibble: 190 x 4
##    country              male female both_sexes
##    <chr>               <dbl>  <dbl>      <dbl>
##  1 Afghanistan           3.2    7.6        5.5
##  2 Albania              21.6   21.8       21.7
##  3 Algeria              19.9   34.9       27.4
##  4 Andorra              25.9   25.3       25.6
##  5 Angola                4     12.1        8.2
##  6 Antigua and Barbuda  11.6   25.9       18.9
##  7 Argentina            27.3   29         28.3
##  8 Armenia              17.1   23         20.2
##  9 Australia            29.6   28.4       29  
## 10 Austria              21.9   18.3       20.1
## # ... with 180 more rows

obesity_df %>% 
  # Pivot the male and female columns
  pivot_longer(c(male,female), names_to = "sex", 
    values_to = "pct_obese")

## # A tibble: 380 x 4
##    country     both_sexes sex    pct_obese
##    <chr>            <dbl> <chr>      <dbl>
##  1 Afghanistan        5.5 male         3.2
##  2 Afghanistan        5.5 female       7.6
##  3 Albania           21.7 male        21.6
##  4 Albania           21.7 female      21.8
##  5 Algeria           27.4 male        19.9
##  6 Algeria           27.4 female      34.9
##  7 Andorra           25.6 male        25.9
##  8 Andorra           25.6 female      25.3
##  9 Angola             8.2 male         4  
## 10 Angola             8.2 female      12.1
## # ... with 370 more rows
…
<img src="{{< blogdown/postref >}}index.en_files/figure-html/unnamed-chunk-16-1.png" width="672" />

2-6 New-Zealand’s bird of the year

Every year New Zealanders vote en masse to decide which species gets the bird of the year trophy. The contest is organized by the Forest & Bird agency which allows each person to give points to up to five birds (first pick gets 5 points, second 4, …). Your job is to decide this year’s winner from the messy dataset that’s been pre-loaded for you as bird_df.

bird_df

## # A tibble: 10,000 x 5
##    points_5          points_4      points_3        points_2        points_1     
##    <chr>             <chr>         <chr>           <chr>           <chr>        
##  1 Yellow-eyed peng~ Kea           Tui             Southern Royal~ Southern Bro~
##  2 Yellow-eyed peng~ Kereru        Tui             Saddleback      Rockhopper P~
##  3 Fiordland Creste~ Bar-tailed G~ Banded Dotterel Black Robin     Blue Duck    
##  4 Fantail           Kea           Tui             Kaka            Kakapo       
##  5 Kakapo            Little Spott~ Rockhopper Pen~ Kokako          Shore Plover 
##  6 Yellow-eyed peng~ <NA>          <NA>            <NA>            <NA>         
##  7 Kakapo            Black Robin   Orange-fronted~ Little Spotted~ Kaka         
##  8 Australasian Cre~ Blue Duck     New Zealand Fa~ Tomtit          Kea          
##  9 Antipodean Albat~ Southern Bro~ Southern Royal~ Great Spotted ~ Barn Owl     
## 10 Kereru            Rockhopper P~ Royal Spoonbill Little Spotted~ Yellow-eyed ~
## # ... with 9,990 more rows

bird_df %>%
  # Pivot the data to create a two column data frame
  pivot_longer(
    c(points_1, points_2, points_3, points_4, points_5),
    names_to = "points",
    names_prefix = "points_",
    names_transform = list(points = as.integer),
    values_to = "species",
    values_drop_na = TRUE
  )

## # A tibble: 46,808 x 2
##    points species                 
##     <int> <chr>                   
##  1      1 Southern Brown Kiwi     
##  2      2 Southern Royal Albatross
##  3      3 Tui                     
##  4      4 Kea                     
##  5      5 Yellow-eyed penguin     
##  6      1 Rockhopper Penguin      
##  7      2 Saddleback              
##  8      3 Tui                     
##  9      4 Kereru                  
## 10      5 Yellow-eyed penguin     
## # ... with 46,798 more rows
…
ss <- stock_df %>% 
  # Pivot the data to create 3 new columns: year, week, price
  pivot_longer(
    -company,
    names_to = c("year", "week"),
    values_to = "price",
    names_sep = "_week",
    names_transform = list(year = as.integer, week = as.integer)
  ) 

ss

## # A tibble: 525 x 4
##    company  year  week price
##    <chr>   <int> <int> <dbl>
##  1 Amazon   2019     1 1848.
##  2 Amazon   2019     2 1641.
##  3 Amazon   2019     3 1696.
##  4 Amazon   2019     4 1671.
##  5 Amazon   2019     5 1626.
##  6 Amazon   2019     6 1588.
##  7 Amazon   2019     7 1608.
##  8 Amazon   2019     8 1632.
##  9 Amazon   2019     9 1672.
## 10 Amazon   2019    10 1621.
## # ... with 515 more rows
…
<img src="{{< blogdown/postref >}}index.en_files/figure-html/unnamed-chunk-19-1.png" width="672" />

2-9 Soviet space dogs, the dog perspective

You’ll be working on an pre-processed sample of the USSR space dogs database compiled by Duncan Geere and pre-loaded for you as space_dogs_df. Each of the 42 rows in this dataset represents a test rocket launch which had one or two very brave dogs on board.

Your goal is to reshape this dataset so that for each launch, each dog has a row.

The challenge is that in the column headers (name_1, name_2, gender_1, and gender_2), the part before the _ separator can point to two different variables (name and gender), while the second part always points to the dog ID (1st or 2nd dog).

Complete the names_to argument so that the first part of the column headers are reused.

space_dogs_df

## # A tibble: 42 x 6
##    date    result                     name_1      name_2       gender_1 gender_2
##    <chr>   <chr>                      <chr>       <chr>        <chr>    <chr>   
##  1 2/22/1~ recovered safely after a ~ Ugolyok / ~ Veterok / B~ Male     Male    
##  2 3/25/1~ one orbit, recovered safe~ Zvezdochka  <NA>         Female   <NA>    
##  3 3/9/19~ one orbit, recovered safe~ Chernuskha  <NA>         Female   <NA>    
##  4 12/22/~ upper stage failed, dogs ~ Shutka      Kometka      Female   Female  
##  5 12/1/1~ spent one day in orbit, c~ Mushka      Pchyolka     Female   Female  
##  6 9/22/1~ recovered safely           Kusachka /~ Neva         Female   Female  
##  7 9/16/1~ recovered safely           Malyok      Palma-2      Male     Female  
##  8 8/19/1~ spent one day in orbit, r~ Belka       Strelka      Female   Female  
##  9 7/28/1~ exploded during launch, b~ Lisichka    Bars / Chai~ Female   Female  
## 10 6/24/1~ recovered safely           Kusachka /~ Snezhinka /~ Female   Female  
## # ... with 32 more rows

space_dogs_df %>% 
  pivot_longer(
    # Add the columns to pivot
    name_1:gender_2,
    names_sep = "_",
    # Complete the names_to argument to re-use the first part of the column headers
    names_to = c(".value", "dog_id"),
    # Make sure NA values are dropped
    values_drop_na = TRUE
  )

## # A tibble: 81 x 5
##    date     result                                  dog_id name           gender
##    <chr>    <chr>                                   <chr>  <chr>          <chr> 
##  1 2/22/19~ recovered safely after a 22-day flight  1      Ugolyok / Sne~ Male  
##  2 2/22/19~ recovered safely after a 22-day flight  2      Veterok / Bzd~ Male  
##  3 3/25/19~ one orbit, recovered safely             1      Zvezdochka     Female
##  4 3/9/1961 one orbit, recovered safely             1      Chernuskha     Female
##  5 12/22/1~ upper stage failed, dogs recovered aft~ 1      Shutka         Female
##  6 12/22/1~ upper stage failed, dogs recovered aft~ 2      Kometka        Female
##  7 12/1/19~ spent one day in orbit, capsule was de~ 1      Mushka         Female
##  8 12/1/19~ spent one day in orbit, capsule was de~ 2      Pchyolka       Female
##  9 9/22/19~ recovered safely                        1      Kusachka / Ot~ Female
## 10 9/22/19~ recovered safely                        2      Neva           Female
## # ... with 71 more rows

2-10 WHO obesity vs. life expectancy

You’ve been given a sample of WHO data (who_df) with obesity percentages and life expectancy data per country, year, and sex. You want to visually inspect the correlation between obesity and life expectancy.

However, the data is very messy with four variables hidden in the column names. Each column name is made up of three parts separated by underscores: Values for the year, followed by those for sex, and then values for either pct.obese or life.exp. Since the third part of the column name string holds two variables you’ll need to use the special “.value” value in the names_to argument.

You’ll pivot the data into a tidy format and create the scatterplot.

who_df

## # A tibble: 180 x 69
##    country  `2000_male_pct.o~ `2000_male_life~ `2000_female_pc~ `2000_female_li~
##    <chr>                <dbl>            <dbl>            <dbl>            <dbl>
##  1 Afghani~               1.2             54.6              3.4             57.3
##  2 Albania               11.7             70.4             14.7             76  
##  3 Algeria               10.3             69.4             24.2             72.2
##  4 Angola                 1.4             45.2              5.6             49.5
##  5 Antigua~               6.8             69.7             18.2             75.1
##  6 Argenti~              19.1             70.2             22.1             77.7
##  7 Armenia               10.9             68.5             16.8             74.6
##  8 Austral~              19.9             77               20.5             82.3
##  9 Austria               14.3             75.3             13.5             81.2
## 10 Azerbai~               9               63.8             15.6             69  
## # ... with 170 more rows, and 64 more variables: 2001_male_pct.obese <dbl>,
## #   2001_male_life.exp <dbl>, 2001_female_pct.obese <dbl>,
## #   2001_female_life.exp <dbl>, 2002_male_pct.obese <dbl>,
## #   2002_male_life.exp <dbl>, 2002_female_pct.obese <dbl>,
## #   2002_female_life.exp <dbl>, 2003_male_pct.obese <dbl>,
## #   2003_male_life.exp <dbl>, 2003_female_pct.obese <dbl>,
## #   2003_female_life.exp <dbl>, 2004_male_pct.obese <dbl>,
## #   2004_male_life.exp <dbl>, 2004_female_pct.obese <dbl>,
## #   2004_female_life.exp <dbl>, 2005_male_pct.obese <dbl>,
…
