…
## tibble [380 x 4] (S3: tbl_df/tbl/data.frame)
##  $ country            : chr [1:380] "Finland" "France" "Italy" "Norway" ...
##  $ year               : chr [1:380] "1980.0" "1980.0" "1980.0" "1980.0" ...
##  $ hourly_compensation: num [1:380] 8.61 8.9 8.09 11.8 5.86 ...
##  $ working_hours      : num [1:380] 35.6 35.4 35.7 30.4 36.8 ...

# Group and summarize the data
ilo_data %>%
  group_by(year) %>%
  summarize(mean_hourly_compensation = mean(hourly_compensation),
            mean_working_hours = mean(working_hours))

## # A tibble: 27 x 3
##    year   mean_hourly_compensation mean_working_hours
##    <chr>                     <dbl>              <dbl>
##  1 1980.0                     9.27               34.0
##  2 1981.0                     8.69               33.6
##  3 1982.0                     8.36               33.5
##  4 1983.0                     7.81               33.9
##  5 1984.0                     7.54               33.7
##  6 1985.0                     7.79               33.7
##  7 1986.0                     9.70               34.0
##  8 1987.0                    12.1                33.6
##  9 1988.0                    13.2                33.7
## 10 1989.0                    13.1                33.5
## # ... with 17 more rows
…
