…
generate will generate resamples, permutations, or simulations.

The homes dataset you created in the last exercise is available in your workspace.

# Specify variables
homeown_perm <- homes %>%
  specify(HomeOwn ~ Gender, success = "Own")

# Print results to console
homeown_perm

## Response: HomeOwn (factor)
## Explanatory: Gender (factor)
## # A tibble: 9,712 x 2
##    HomeOwn Gender
##    <fct>   <fct> 
##  1 Own     male  
##  2 Own     male  
##  3 Own     male  
##  4 Own     male  
##  5 Rent    female
##  6 Rent    male  
##  7 Own     male  
##  8 Own     female
##  9 Own     female
## 10 Own     female
## # ... with 9,702 more rows
…
# Perform 10 permutations
homeown_perm <- homes %>%
  specify(HomeOwn ~ Gender, success = "Own") %>%
  hypothesize(null = "independence") %>% 
  generate(reps = 10, type = "permute") 

# Print results to console
homeown_perm

## Response: HomeOwn (factor)
## Explanatory: Gender (factor)
## Null Hypothesis: independence
## # A tibble: 97,120 x 3
## # Groups:   replicate [10]
##    HomeOwn Gender replicate
##    <fct>   <fct>      <int>
##  1 Own     male           1
##  2 Own     male           1
##  3 Own     male           1
##  4 Own     male           1
##  5 Own     female         1
##  6 Own     male           1
##  7 Own     male           1
##  8 Rent    female         1
##  9 Rent    female         1
## 10 Own     female         1
## # ... with 97,110 more rows
…
The dplyr, ggplot2, NHANES, and infer packages have been loaded for you. Repeat the permuting and plotting with 100 differences in proportions generated by shuffling the HomeOwn variable.

# Perform 100 permutations
homeown_perm <- homes %>%
  specify(HomeOwn ~ Gender, success = "Own") %>%
  hypothesize(null = "independence") %>% 
  generate(reps = 100, type = "permute") %>% 
  calculate("diff in props", order = c("male", "female"))
  
# Print results to console
homeown_perm

## # A tibble: 100 x 2
##    replicate      stat
##        <int>     <dbl>
##  1         1 -0.00577 
##  2         2 -0.00247 
##  3         3 -0.000827
##  4         4 -0.00948 
##  5         5 -0.0165  
##  6         6  0.00494 
##  7         7  0.0189  
##  8         8  0.00659 
##  9         9 -0.0115  
## 10        10 -0.00453 
## # ... with 90 more rows
…
## # A tibble: 1 x 3
##     q.01   q.05   q.10
##    <dbl>  <dbl>  <dbl>
## 1 -0.292 -0.208 -0.125

disc_perm

## # A tibble: 1,000 x 2
##    replicate    stat
##        <int>   <dbl>
##  1         1  0.0417
##  2         2 -0.0417
##  3         3 -0.125 
##  4         4  0.125 
##  5         5  0.208 
##  6         6 -0.208 
##  7         7  0.125 
##  8         8  0.0417
##  9         9 -0.208 
## 10        10  0.208 
## # ... with 990 more rows
…
# Create data frame of permuted differences in purchase rates
opp_perm <- opportunity %>%
  # Specify decision vs. group, where success is buying a DVD
  specify(decision~ group, success = "buyDVD") %>%
  # Set the null hypothesis to independence
  hypothesize(null = "independence") %>%
  # Generate 1000 reps of type permute
  generate(reps = 1000, type = "permute") %>%
  # Calculate the summary stat difference in proportions
  calculate(stat = "diff in props", order = c("treatment", "control"))
    
# Review the result
opp_perm

## # A tibble: 1,000 x 2
##    replicate    stat
##        <int>   <dbl>
##  1         1  0.0133
##  2         2 -0.0133
##  3         3 -0.0133
##  4         4 -0.0133
##  5         5  0.0933
##  6         6  0.0933
##  7         7 -0.0400
##  8         8  0.147 
##  9         9 -0.0933
## 10        10  0.0133
## # ... with 990 more rows
…
A: Type I: There is not a difference in proportions, but the observed difference is big enough to indicate that the proportions are different.

Type II: There is a difference in proportions, but the observed difference is not large enough to indicate that the proportions are different.

3-10 p-value for two-sided hypotheses: opportunity costs

The p-value measures the likelihood of data as or more extreme than the observed data, given the null hypothesis is true. Therefore, the appropriate p-value for a two-sided alternative hypothesis is a two-sided p-value.

To find a two-sided p-value, you simply double the one sided p-value. That is, you want to find two times the proportion of permuted differences that are less than or equal to the observed difference.

The opp_perm data frame, containing the differences in permuted proportions, and the original observed statistic, diff_orig, are available in your workspace.

opp_perm

## # A tibble: 1,000 x 2
##    replicate    stat
##        <int>   <dbl>
##  1         1 -0.0933
##  2         2  0.0133
##  3         3  0.0933
##  4         4  0.0667
##  5         5  0.12  
##  6         6 -0.0667
##  7         7 -0.0133
##  8         8  0.0133
##  9         9 -0.0133
## 10        10  0.0933
## # ... with 990 more rows
…
We have created 1000 random samples, each of size 30, from the population. The resulting data frame, all_polls, is available in your workspace. Take a look before getting started.

# Compute p-hat for each poll
ex1_props <- all_polls %>% 
  # Group by poll
  group_by(poll) %>% 
  # Calculate proportion of yes votes
  summarise(stat = mean(vote == "yes"))
  
# Review the result
ex1_props

## # A tibble: 1,000 x 2
##     poll  stat
##    <int> <dbl>
##  1     1 0.7  
##  2     2 0.667
##  3     3 0.633
##  4     4 0.633
##  5     5 0.4  
##  6     6 0.6  
##  7     7 0.5  
##  8     8 0.533
##  9     9 0.567
## 10    10 0.567
## # ... with 990 more rows
…
